-34.527720961482785 -58.46063382237545
-34.527720961482785 -58.46063382237545
-34.52780568885679 -58.46067108069992
-34.52780568885679 -58.46067108069992
-34.52789041623079 -58.4607083390244
-34.52789041623079 -58.4607083390244
-34.52797514360479 -58.46074559734888
-34.52797514360479 -58.46074559734888
-34.528059870978794 -58.46078285567336
-34.528059870978794 -58.46078285567336
-34.528144598352796 -58.460820113997826
-34.528144598352796 -58.460820113997826
-34.52817543659496 -58.46071774759264
-34.52817543659496 -58.46071774759264
-34.528090709220955 -58.46068048926816
-34.528090709220955 -58.46068048926816
-34.52800598184696 -58.46064323094368
-34.52800598184696 -58.46064323094368
-34.52792125447296 -58.460605972619206
-34.52792125447296 -58.460605972619206
-34.527836527098955 -58.46056871429472
-34.527836527098955 -58.46056871429472
-34.52775179972495 -58.46053145597025
-34.52775179972495 -58.46053145597025
-34.52786736534112 -58.46046634788953
-34.52786736534112 -58.46046634788953
-34.527952092715125 -58.46050360621401
-34.527952092715125 -58.46050360621401
-34.52794430536263 -58.46084796375407
-34.52794430536263 -58.46084796375407
-34.52791346712047 -58.46095033015926
-34.52791346712047 -58.46095033015926
-34.527998194494465 -58.46098758848373
-34.527998194494465 -58.46098758848373
-34.528029032736626 -58.460885222078545
-34.528029032736626 -58.460885222078545
