0.0518238544464,-58.4606291,-34.5276023,-0.963725014528956,0.0,49.0,10764.0
1.30446696281,-58.460629,-34.5276024,-0.963725014528956,0.0,49.0,10764.0
1.82701683044,-58.4606287,-34.5276025,-0.9637259682032724,0.0,49.0,10764.0
2.3397898674,-58.4606285,-34.5276026,-0.963781281313624,0.0,49.0,10764.0
2.84180998802,-58.4606284,-34.5276026,-0.9639510353419442,0.0,49.0,10764.0
3.34663581848,-58.460628299999996,-34.527602699999996,-0.964004441103663,0.0,49.0,10764.0
3.85393977165,-58.460628299999996,-34.527602699999996,-0.964004441103663,0.0,49.0,10764.0
4.36493086815,-58.460628,-34.527602699999996,-0.9640702446314949,0.0,49.0,10764.0
4.86904788017,-58.4606278,-34.5276028,-0.9641198356959482,0.0,49.0,10764.0
5.377835989,-58.4606278,-34.5276028,-0.9641560753199716,0.0,49.0,10764.0
7.89969277382,-58.4606278,-34.5276028,-0.9641560753199716,0.0,49.0,10764.0
8.40423488617,-58.4606274,-34.527603,-1.3153208931300302,0.0,49.0,10764.0
8.91039180756,-58.460621599999996,-34.5276013,0.5891724387791495,1.073,49.0,10764.0
9.41368985176,-58.4606138,-34.527601499999996,1.0980616370823721,1.153,49.0,10764.0
9.91561484337,-58.460607599999996,-34.5276013,1.2753303805973868,0.814,49.0,10764.0
10.419095993,-58.4606049,-34.5276012,1.2983601848271231,0.821,49.0,10764.0
11.3706099987,-58.4606029,-34.5276011,1.2983601848271231,0.8,49.0,10764.0
11.8775868416,-58.460594,-34.527602,1.276962355771337,0.905,49.0,10764.0
12.3817718029,-58.460589,-34.5276074,1.9641929427769522,1.157,49.0,10764.0
12.8819348812,-58.4605763,-34.527622799999996,2.7128973762181143,1.415,49.0,10764.0
13.3840298653,-58.4605684,-34.5276364,3.055890874066625,1.602,49.0,10764.0
13.8956139088,-58.4605575,-34.5276553,2.991508678593908,1.286,49.0,10764.0
14.3999209404,-58.4605524,-34.5276627,3.0779811898854117,1.518,49.0,10764.0
14.9022119045,-58.460551599999995,-34.5276798,3.128853873410497,1.758,49.0,10764.0
15.4091598988,-58.460552,-34.5276837,-3.1056468367537082,1.773,49.0,10764.0
15.9202158451,-58.4605532,-34.5276821,-3.0928184866865696,1.697,49.0,10764.0
16.4302449226,-58.460554699999996,-34.5276773,-3.076731073852402,1.597,49.0,10764.0
16.9438319206,-58.460558999999996,-34.527667,-3.064473378654343,1.514,49.0,10764.0
17.4480559826,-58.4605634,-34.527659299999996,-3.053024756904465,1.526,49.0,10764.0
17.9628608227,-58.4605715,-34.5276481,-3.0369981408079685,1.637,49.0,10764.0
18.4760148525,-58.460577799999996,-34.5276408,-3.045858728881699,1.688,49.0,10764.0
18.9775919914,-58.460587399999994,-34.5276322,-3.0526894211729587,1.636,49.0,10764.0
19.4893009663,-58.4605926,-34.5276275,-3.0538291811903537,1.682,49.0,10764.0
19.9948618412,-58.460598,-34.527620999999996,-3.075800406928879,1.622,49.0,10764.0
20.4991848469,-58.460600899999996,-34.5276169,-3.077206361289841,1.557,49.0,10764.0
21.0065639019,-58.4606042,-34.527613099999996,-3.097652661796433,1.457,49.0,10764.0
21.5094919205,-58.460603899999995,-34.5276122,-3.097101199622971,1.469,49.0,10764.0
22.0188829899,-58.4606029,-34.5276099,-3.097828853126389,1.495,49.0,10764.0
22.5193338394,-58.4606007,-34.5276096,-3.0893241047819675,1.483,49.0,10764.0
23.0248978138,-58.4605986,-34.5276099,-3.0839642167051853,1.427,49.0,10764.0
23.526747942,-58.4605961,-34.5276107,-3.0888103127440036,1.38,49.0,10764.0
24.0347139835,-58.4605951,-34.5276114,-3.091297495361191,1.369,49.0,10764.0
24.5358889103,-58.4605951,-34.5276122,-3.1058291077574314,1.376,49.0,10764.0
25.0449478626,-58.4605968,-34.5276133,-2.2643949866255344,1.477,49.0,10764.0
25.5541529655,-58.460599699999996,-34.5276156,-1.6116189837416235,1.436,49.0,10764.0
26.0579857826,-58.460599599999995,-34.5276187,-1.7542095065077368,1.411,49.0,10764.0
26.558978796,-58.460597299999996,-34.5276269,-1.824160802360398,1.428,49.0,10764.0
27.0688619614,-58.4605944,-34.5276352,-1.873026597495896,1.429,49.0,10764.0
27.5745728016,-58.460591,-34.5276472,-1.8860428214033667,1.476,48.0,10728.0
28.0804359913,-58.460589999999996,-34.5276552,-1.878982293601853,1.47,48.0,10728.0
28.5871059895,-58.460590599999996,-34.5276674,-1.8720807909926,1.531,48.0,10728.0
29.0883319378,-58.460591799999996,-34.5276759,-1.8736071467360083,1.497,48.0,10728.0
29.591906786,-58.4605949,-34.5276882,-1.8771567225416723,1.453,47.0,10692.0
30.0928459167,-58.460597199999995,-34.5276958,-1.8639454722364965,1.504,47.0,10692.0
30.6046419144,-58.460601999999994,-34.5277047,-1.8576886534651342,1.53,46.0,10656.0
31.1158378124,-58.4606053,-34.5277098,-1.8275575518568579,1.516,46.0,10656.0
31.6220359802,-58.4606097,-34.527715799999996,-1.8259672999342504,1.543,46.0,10656.0
32.1268138885,-58.460611899999996,-34.5277191,-1.8086500048597876,1.556,46.0,10656.0
32.6348078251,-58.4606135,-34.527721899999996,-1.8184852480848852,1.513,45.0,10620.0
33.1419398785,-58.460613699999996,-34.5277223,-1.8290748476942602,1.485,45.0,10620.0
33.6438708305,-58.460613699999996,-34.5277217,-1.8373145937880102,1.51,43.0,10548.0
34.1469519138,-58.4606135,-34.527719999999995,-1.8377401709517065,1.472,43.0,10548.0
34.6546318531,-58.460613599999995,-34.5277167,-1.828494536872727,1.422,42.0,10512.0
35.1579999924,-58.4606139,-34.5277147,-1.825097548957688,1.45,42.0,10512.0
35.6656868458,-58.4606152,-34.527712199999996,-1.8319997668226782,1.514,42.0,10512.0
36.1728999615,-58.4606165,-34.5277113,-1.8509433150251928,1.523,42.0,10512.0
36.680524826,-58.460617299999996,-34.527711,-1.8514847636183325,1.533,42.0,10512.0
37.1877338886,-58.4606218,-34.5277102,-1.8538129210432592,1.455,41.0,10476.0
37.6915447712,-58.4606249,-34.527709699999996,-1.8568768382032934,1.534,41.0,10476.0
38.1950957775,-58.4606267,-34.52771,-1.893578994270188,1.515,41.0,10476.0
38.7057909966,-58.460629999999995,-34.5277137,-1.9212503313978735,1.481,41.0,10476.0
39.2089109421,-58.460632499999996,-34.527718199999995,-1.964304673667771,1.536,41.0,10476.0
39.7156598568,-58.460635999999994,-34.5277263,-1.9702973246534887,1.459,41.0,10476.0
40.2180039883,-58.4606382,-34.527732,-1.9742438673933569,1.482,41.0,10476.0
40.7236697674,-58.4606419,-34.5277411,-1.9838533282240454,1.544,41.0,10476.0
41.2309679985,-58.4606449,-34.5277477,-1.979798305030686,1.537,41.0,10476.0
41.7344758511,-58.460649499999995,-34.527757799999996,-1.9651033759077612,1.592,41.0,10476.0
42.2456538677,-58.4606518,-34.5277637,-1.9745685934980932,1.634,41.0,10476.0
42.7536609173,-58.4606551,-34.5277713,-1.9936034560164038,1.692,41.0,10476.0
43.2580077648,-58.4606577,-34.5277751,-1.9838323473890844,1.815,41.0,10476.0
43.7742328644,-58.4606614,-34.5277798,-1.9789960265120092,1.78,41.0,10476.0
44.2833409309,-58.4606642,-34.5277822,-1.974469649787766,1.728,41.0,10476.0
44.7859799862,-58.460667799999996,-34.5277853,-1.9769356131514135,1.644,41.0,10476.0
45.2998697758,-58.4606694,-34.5277867,-1.9719440817793432,1.512,41.0,10476.0
45.8109719753,-58.4606704,-34.5277879,-1.9726443171461645,1.336,41.0,10476.0
46.3199219704,-58.4606706,-34.527788199999996,-1.9671001315077368,1.265,41.0,10476.0
46.823089838,-58.4606704,-34.5277883,-1.9523806452711645,1.272,41.0,10476.0
47.3239278793,-58.4606704,-34.5277891,-1.9347221732100073,1.29,41.0,10476.0
47.8315608501,-58.4606723,-34.5277944,-1.9450654864271704,1.294,41.0,10476.0
48.3361558914,-58.460676199999995,-34.5278032,-1.937939870353562,1.299,41.0,10476.0
48.8484618664,-58.460679,-34.5278098,-1.9329576373060766,1.352,41.0,10476.0
49.350096941,-58.4606833,-34.5278203,-1.942040908332688,1.474,41.0,10476.0
49.8524849415,-58.4606867,-34.5278274,-1.9515924334486547,1.574,41.0,10476.0
50.3553299904,-58.460691499999996,-34.5278377,-1.9477887034376684,1.613,41.0,10476.0
50.8667838573,-58.4606943,-34.527844699999996,-1.9454038023909155,1.573,41.0,10476.0
51.3762989044,-58.4606972,-34.5278542,-1.937906968589646,1.569,41.0,10476.0
51.8884489536,-58.4606985,-34.5278602,-1.955907809730393,1.547,41.0,10476.0
52.3955338001,-58.460700499999994,-34.527868399999996,-1.9581761240919653,1.557,41.0,10476.0
52.895816803,-58.460701699999994,-34.5278732,-1.9461648344954077,1.543,41.0,10476.0
53.3997309208,-58.460703499999994,-34.5278789,-1.9436175703962866,1.449,41.0,10476.0
53.9096908569,-58.4607046,-34.5278811,-1.9247379183729711,1.438,41.0,10476.0
54.411552906,-58.4607063,-34.527884799999995,-1.9238552927931372,1.409,41.0,10476.0
54.9130868912,-58.4607077,-34.5278888,-1.9510879397352758,1.45,40.0,10440.0
55.4244008064,-58.4607106,-34.5278966,-1.9667794585188452,1.519,40.0,10440.0
55.9289078712,-58.4607129,-34.5279027,-1.9802908778151098,1.496,40.0,10440.0
56.4336087704,-58.4607161,-34.527912199999996,-1.980606067176682,1.488,40.0,10440.0
56.9368917942,-58.460718299999996,-34.5279191,-1.9945106387098852,1.517,40.0,10440.0
57.443420887,-58.460721799999995,-34.527929,-1.9875151991804663,1.58,40.0,10440.0
57.9497299194,-58.460724299999995,-34.5279356,-1.9886112093885961,1.553,40.0,10440.0
58.4562838078,-58.4607281,-34.527944399999996,-1.9888205409010473,1.486,40.0,10440.0
58.9585189819,-58.4607305,-34.5279497,-1.982413518424851,1.48,40.0,10440.0
59.4603028297,-58.4607338,-34.527957,-1.9873590350111547,1.502,40.0,10440.0
59.9670069218,-58.4607356,-34.5279611,-1.9871303915937963,1.502,40.0,10440.0
60.4751777649,-58.4607372,-34.5279653,-1.9793095469435278,1.489,40.0,10440.0
60.9752039909,-58.460737699999996,-34.5279673,-1.964781510825974,1.436,40.0,10440.0
61.484389782,-58.460738199999994,-34.527970599999996,-1.960863578315598,1.451,40.0,10440.0
61.9949829578,-58.460739,-34.5279743,-1.9715626120527807,1.474,40.0,10440.0
62.4980728626,-58.4607415,-34.5279813,-1.9742083430250708,1.474,40.0,10440.0
63.0014038086,-58.460743699999995,-34.5279866,-1.9831161379774633,1.481,40.0,10440.0
63.5112807751,-58.460747899999994,-34.5279957,-1.9828722357710424,1.448,40.0,10440.0
64.0152437687,-58.460751099999996,-34.5280025,-1.9866595149000708,1.432,40.0,10440.0
64.5213799477,-58.460756599999996,-34.5280133,-1.9975404620131079,1.545,40.0,10440.0
65.0265438557,-58.46076,-34.52802,-1.9908063292463842,1.615,40.0,10440.0
65.5310509205,-58.4607642,-34.5280293,-1.9913234591444555,1.643,40.0,10440.0
66.0374867916,-58.4607666,-34.528034999999996,-1.985033261772019,1.637,40.0,10440.0
66.5488409996,-58.4607691,-34.5280425,-1.9813260912855688,1.572,40.0,10440.0
67.0495569706,-58.4607703,-34.5280462,-1.976542222495896,1.576,40.0,10440.0
67.5601799488,-58.460770499999995,-34.5280499,-1.9771063208540502,1.495,40.0,10440.0
68.0641927719,-58.4607701,-34.5280512,-1.96491526364885,1.451,40.0,10440.0
68.5746028423,-58.460769899999995,-34.528053899999996,-1.9736792921980444,1.389,40.0,10440.0
69.0791678429,-58.4607706,-34.528058099999996,-2.0183718085249485,1.39,40.0,10440.0
69.5810577869,-58.4607725,-34.5280661,-2.0284561991652073,1.468,40.0,10440.0
70.0906338692,-58.4607738,-34.5280724,-2.0412387728651584,1.461,40.0,10440.0
70.5992279053,-58.4607764,-34.528082,-2.036186444755417,1.496,40.0,10440.0
71.1187899113,-58.460778299999994,-34.528089699999995,-2.048121678825242,1.49,40.0,10440.0
71.6330878735,-58.4607824,-34.5281018,-2.039636838432175,1.5,40.0,10440.0
73.1493017673,-58.4607824,-34.5281018,-2.039636838432175,1.5,40.0,10440.0
73.6526799202,-58.460799599999994,-34.5281354,-2.036526668067795,1.537,40.0,10440.0
74.1631369591,-58.4608047,-34.5281407,-2.0299308180769504,1.457,40.0,10440.0
74.6677467823,-58.4608078,-34.5281428,-2.0229844927748264,1.431,40.0,10440.0
75.1810469627,-58.460811899999996,-34.5281443,-1.9944100260695043,1.428,40.0,10440.0
75.6916577816,-58.4608145,-34.5281461,-1.9933967471083227,1.443,40.0,10440.0
76.2003757954,-58.460817899999995,-34.5281514,-1.78634761571489,1.499,40.0,10440.0
76.7096159458,-58.460820399999996,-34.5281561,-0.8477827747676034,1.535,40.0,10440.0
77.216865778,-58.4608224,-34.5281656,-0.44474904139968346,1.476,40.0,10440.0
77.7181398869,-58.460820999999996,-34.5281715,-0.35819642146560143,1.48,40.0,10440.0
78.2357838154,-58.460810599999995,-34.528177299999996,-0.3616100986811776,1.282,40.0,10440.0
78.7456119061,-58.460801399999994,-34.5281789,-0.3630472858760018,1.338,40.0,10440.0
79.2529947758,-58.4607848,-34.5281783,-0.3534151752802987,1.63,40.0,10440.0
79.7607748508,-58.460772999999996,-34.528177,-0.3566505153987069,1.676,40.0,10440.0
80.2690708637,-58.4607555,-34.528174299999996,-0.3639165600154061,1.632,40.0,10440.0
80.7793488503,-58.460744999999996,-34.5281721,-0.36360137065383386,1.604,40.0,10440.0
81.2907299995,-58.460732799999995,-34.5281685,-0.34966961940261315,1.518,40.0,10440.0
81.7956678867,-58.460727299999995,-34.5281666,-0.3222543438288827,1.527,40.0,10440.0
82.304322958,-58.460722,-34.5281658,-0.38144366343947833,1.522,40.0,10440.0
82.8156208992,-58.460718199999995,-34.5281666,-0.41791932185622643,1.502,40.0,10440.0
83.3251099586,-58.4607082,-34.5281695,-0.061370058855738145,1.457,40.0,10440.0
83.8285279274,-58.460699899999994,-34.5281717,0.6920555392887932,1.5,40.0,10440.0
84.3302547932,-58.4606856,-34.5281744,1.1280792514469962,1.495,40.0,10440.0
84.8336219788,-58.4606772,-34.5281745,1.2085722247746329,1.51,40.0,10440.0
85.3484888077,-58.4606686,-34.5281683,1.2380522052433829,1.418,40.0,10440.0
85.8639278412,-58.460665199999994,-34.5281612,1.2364567081120352,1.411,40.0,10440.0
86.3751809597,-58.460664099999995,-34.5281492,1.2317570010807852,1.478,39.0,10404.0
86.8819828033,-58.4606679,-34.528137099999995,1.2274626056340079,1.452,39.0,10404.0
87.3921568394,-58.4606729,-34.528129899999996,1.2072971622135977,1.485,39.0,10404.0
87.8950638771,-58.460682,-34.5281204,1.200241402783666,1.554,39.0,10404.0
88.3980197906,-58.4606874,-34.528114599999995,1.199194268384252,1.559,39.0,10404.0
88.9098417759,-58.4606923,-34.528107299999995,1.2071584026005606,1.561,39.0,10404.0
89.4181568623,-58.460693299999996,-34.528104299999995,1.2173913280155997,1.507,38.0,10368.0
89.9288108349,-58.460692699999996,-34.528101,1.2237480441716055,1.414,38.0,10368.0
90.4357168674,-58.4606911,-34.5280991,1.173622922101293,1.414,38.0,10368.0
90.946089983,-58.4606855,-34.5280942,1.17361576954392,1.465,38.0,10368.0
91.4524087906,-58.460679799999994,-34.5280892,1.1789439479496817,1.535,38.0,10368.0
91.9590299129,-58.460670199999996,-34.5280813,1.1807964603093009,1.546,38.0,10368.0
92.464414835,-58.4606669,-34.5280786,1.1846321384098868,1.512,38.0,10368.0
92.9676499367,-58.4606552,-34.5280675,1.1811273852970938,1.509,38.0,10368.0
93.4702348709,-58.460650699999995,-34.5280615,1.1866949359562735,1.536,38.0,10368.0
93.9757838249,-58.460645899999996,-34.5280517,1.1835168162968497,1.467,38.0,10368.0
94.4768099785,-58.4606437,-34.5280449,1.1865242282536368,1.455,38.0,10368.0
94.9849829674,-58.4606418,-34.5280339,1.1847379962590079,1.509,38.0,10368.0
95.4934117794,-58.460640999999995,-34.528026499999996,1.184038476147924,1.489,38.0,10368.0
95.9969117641,-58.4606405,-34.5280166,1.1911252299931387,1.543,38.0,10368.0
96.5002958775,-58.4606408,-34.5280116,1.196886853375707,1.486,38.0,10368.0
97.0061819553,-58.4606412,-34.5280073,1.1739571849491934,1.443,38.0,10368.0
97.5119659901,-58.4606414,-34.528006399999995,1.1897042552616934,1.47,38.0,10368.0
98.0147309303,-58.4606412,-34.5280037,1.190123395123754,1.558,38.0,10368.0
98.5222377777,-58.4606406,-34.527999799999996,1.2153199474003653,1.558,38.0,10368.0
99.0341219902,-58.4606406,-34.527992499999996,1.2143657962468009,1.48,38.0,10368.0
99.5390639305,-58.4606413,-34.5279867,1.2091081897404532,1.412,38.0,10368.0
100.041874886,-58.460640999999995,-34.527978399999995,1.2005856792118887,1.407,38.0,10368.0
100.552064896,-58.460639,-34.527972999999996,1.208492592969213,1.487,37.0,10332.0
101.053663969,-58.460634899999995,-34.5279649,1.1996553699162344,1.578,37.0,10332.0
101.565391779,-58.460632499999996,-34.5279601,1.214530305066381,1.566,37.0,10332.0
102.066723824,-58.460630599999995,-34.527954099999995,1.2213743487980704,1.532,37.0,10332.0
102.577409983,-58.4606297,-34.5279504,1.215539769330297,1.456,37.0,10332.0
103.079339981,-58.4606279,-34.5279448,1.2073977748539786,1.42,37.0,10332.0
103.583931923,-58.460625799999995,-34.527940799999996,1.2183721820500235,1.554,37.0,10332.0
104.084978819,-58.4606218,-34.527935,1.224382714429174,1.678,37.0,10332.0
104.595594883,-58.4606189,-34.5279319,1.2236479083683829,1.778,37.0,10332.0
105.095784903,-58.460614899999996,-34.5279285,1.2260769168522696,1.725,37.0,10332.0
105.598935843,-58.4606128,-34.5279267,1.1759274760868887,1.595,37.0,10332.0
106.105111837,-58.460609,-34.5279206,1.1612041751530509,1.405,37.0,10332.0
106.607309818,-58.460606,-34.5279149,1.155783967175756,1.374,37.0,10332.0
107.118810892,-58.4606017,-34.527906,1.166725949445043,1.501,37.0,10332.0
107.623619795,-58.4605988,-34.5279001,1.1691163341191153,1.53,37.0,10332.0
108.135154963,-58.4605946,-34.5278906,1.1710937778141837,1.465,37.0,10332.0
108.639414787,-58.4605921,-34.5278845,1.1716106692936759,1.445,37.0,10332.0
109.159230947,-58.4605884,-34.5278758,1.1864441196110587,1.49,37.0,10332.0
109.666009903,-58.4605864,-34.527870199999995,1.1831134120610098,1.476,37.0,10332.0
110.169221878,-58.4605847,-34.5278615,1.1694901744511466,1.456,37.0,10332.0
110.673823833,-58.4605842,-34.527855699999996,1.1746295253422598,1.389,37.0,10332.0
111.173913956,-58.4605843,-34.5278487,1.1781867305424552,1.415,37.0,10332.0
111.682293892,-58.460584,-34.5278454,1.1831801692631583,1.492,37.0,10332.0
112.189600945,-58.460582599999995,-34.5278426,1.1769245425846915,1.546,37.0,10332.0
112.693895817,-58.4605812,-34.527841599999995,1.1396005908635,1.546,37.0,10332.0
113.199209929,-58.4605775,-34.527837999999996,1.1366556445744376,1.579,37.0,10332.0
113.702914953,-58.4605743,-34.527833699999995,1.1333354274418692,1.597,37.0,10332.0
114.204173803,-58.4605697,-34.5278256,1.118193463483129,1.479,37.0,10332.0
114.709073782,-58.4605666,-34.5278194,1.120456532635961,1.457,37.0,10332.0
115.219225883,-58.4605627,-34.527809999999995,1.1465276042607169,1.458,37.0,10332.0
115.726423979,-58.4605606,-34.5278042,1.1634410182621817,1.452,37.0,10332.0
116.231609821,-58.4605579,-34.5277965,1.181212262311254,1.485,37.0,10332.0
116.735865831,-58.4605562,-34.5277901,1.151415185132299,1.51,37.0,10332.0
117.244560957,-58.4605556,-34.5277866,1.156420544781957,1.514,37.0,10332.0
117.74989295,-58.4605542,-34.527781,1.1519935886051993,1.5,37.0,10332.0
118.25163579,-58.460552899999996,-34.5277771,1.1465013782170157,1.528,37.0,10332.0
118.75332284,-58.4605513,-34.5277726,1.1449311534550528,1.546,37.0,10332.0
119.258315802,-58.4605507,-34.527770499999995,1.1244328776982169,1.49,37.0,10332.0
119.765112877,-58.4605499,-34.5277676,1.1246178905155997,1.511,37.0,10332.0
120.272735834,-58.460549,-34.527765599999995,1.1453035632756094,1.548,37.0,10332.0
120.780503988,-58.4605478,-34.5277635,1.1513193408635,1.475,37.0,10332.0
121.324329853,-58.4605465,-34.5277627,1.1423629085209708,1.47,37.0,10332.0
121.82434392,-58.4605432,-34.5277617,1.1355198184635977,1.565,37.0,10332.0
122.719336987,-58.460540099999996,-34.5277585,1.1428144733097891,1.589,37.0,10332.0
123.224491835,-58.46053,-34.527744999999996,-0.1962835033747811,1.537,37.0,10332.0
123.728988886,-58.4605259,-34.5277386,-0.8793570240351816,1.472,37.0,10332.0
124.237300873,-58.4605209,-34.527732199999996,-1.0475174625727792,1.466,37.0,10332.0
124.744301796,-58.4605183,-34.527733,-1.0825099190089364,1.521,37.0,10332.0
125.24868083,-58.4605135,-34.5277404,-1.1148523529383798,1.464,37.0,10332.0
125.755280972,-58.4605105,-34.5277475,-1.1147779663417001,1.434,37.0,10332.0
126.264783859,-58.460507299999996,-34.5277598,-1.1089274128291269,1.469,37.0,10332.0
126.767463923,-58.4605044,-34.5277692,-1.116317673525538,1.488,37.0,10332.0
127.271210909,-58.460499199999994,-34.527785099999996,-1.1246358593318124,1.466,37.0,10332.0
127.776338816,-58.4604955,-34.527795399999995,-1.1133650978419443,1.488,36.0,10296.0
128.283432961,-58.4604886,-34.527809999999995,-1.1143089969966073,1.579,36.0,10296.0
128.788409948,-58.4604837,-34.527819,-1.113049670061793,1.59,35.0,10260.0
129.295533895,-58.4604772,-34.5278312,-1.1126000126216073,1.52,35.0,10260.0
129.798348904,-58.460473699999994,-34.527837999999996,-1.1104082306239267,1.488,35.0,10260.0
130.303842783,-58.460469499999995,-34.527846,-1.1128813465449472,1.449,35.0,10260.0
130.805909872,-58.4604674,-34.527849599999996,-1.110294028124537,1.423,34.0,10224.0
131.313800812,-58.460465199999994,-34.5278533,-1.1110905845973154,1.456,34.0,10224.0
131.82416296,-58.460464699999996,-34.527854999999995,-1.162539883455958,1.496,34.0,10224.0
132.332231998,-58.460463999999995,-34.527858699999996,-1.1995727260920663,1.515,34.0,10224.0
132.847991943,-58.4604631,-34.527862299999995,-1.6833703398665014,1.493,34.0,10224.0
133.359213829,-58.4604614,-34.5278688,-1.9214305758436743,1.539,34.0,10224.0
133.86813879,-58.4604627,-34.5278746,-1.969579446311814,1.562,34.0,10224.0
134.369217873,-58.4604644,-34.5278783,-1.9714000105818335,1.523,34.0,10224.0
134.88197279,-58.460468199999994,-34.5278847,-1.9755248904188696,1.461,34.0,10224.0
135.388929844,-58.460471299999995,-34.5278896,-1.9745294928511206,1.454,34.0,10224.0
135.894713879,-58.4604766,-34.5278972,-1.9723336577375952,1.499,34.0,10224.0
136.397437811,-58.460480499999996,-34.5279027,-1.979375827308518,1.546,34.0,10224.0
136.903815985,-58.4604863,-34.5279108,-1.9832002997358862,1.563,34.0,10224.0
137.408358812,-58.4604899,-34.527915799999995,-1.991402137275559,1.569,34.0,10224.0
137.911848783,-58.4604942,-34.527923,-1.992104041572434,1.539,34.0,10224.0
138.418125868,-58.460496199999994,-34.5279272,-1.994770514961106,1.541,34.0,10224.0
138.923513889,-58.460497999999994,-34.5279321,-1.9904498934706274,1.506,34.0,10224.0
139.431110859,-58.460498599999994,-34.5279344,-1.9866704821547094,1.495,34.0,10224.0
139.933413982,-58.4604991,-34.527937,-1.9860789656599585,1.483,34.0,10224.0
140.51610899,-58.460499199999994,-34.527938,-1.9917223334272924,1.488,34.0,10224.0
141.016529799,-58.4604995,-34.5279399,-1.9430179476698461,1.478,34.0,10224.0
141.529135942,-58.460499899999995,-34.527942599999996,-1.945801722999436,1.465,34.0,10224.0
142.041238785,-58.460500499999995,-34.527949,-2.847436892982346,1.505,34.0,10224.0
142.541803837,-58.4605038,-34.5279551,-3.110378968711716,1.504,34.0,10224.0
143.0436728,-58.460508499999996,-34.5279564,3.098270253339086,1.468,34.0,10224.0
143.558788776,-58.4605116,-34.5279562,3.093607143559728,1.492,34.0,10224.0
144.066011906,-58.4605262,-34.5279521,3.093733266988073,1.501,34.0,10224.0
144.571729898,-58.4605387,-34.5279485,3.091272429623876,1.534,34.0,10224.0
145.084279776,-58.4605476,-34.5279464,3.089203313985143,1.519,34.0,10224.0
145.590394974,-58.4605622,-34.5279441,3.0925784866001944,1.559,34.0,10224.0
146.094296932,-58.460572799999994,-34.5279433,3.0916189710286,1.561,34.0,10224.0
146.595268965,-58.460589,-34.5279429,3.0882675210621695,1.578,34.0,10224.0
147.105311871,-58.4606,-34.5279431,3.0911602536824088,1.589,34.0,10224.0
147.61171484,-58.460617199999994,-34.5279443,3.095000342526708,1.62,34.0,10224.0
148.119617939,-58.4606286,-34.5279458,3.0977900783207755,1.566,34.0,10224.0
148.6291399,-58.460645799999995,-34.5279485,3.0955206910755972,1.517,34.0,10224.0
149.140877962,-58.460656199999995,-34.5279508,3.0881582061436514,1.443,34.0,10224.0
149.643520832,-58.460674499999996,-34.527950499999996,3.0868371287968497,1.454,34.0,10224.0
150.150978804,-58.4606861,-34.5279506,3.0869992534306387,1.468,34.0,10224.0
150.651727915,-58.460701699999994,-34.5279508,3.0874456922200064,1.526,34.0,10224.0
151.156869888,-58.4607124,-34.5279509,3.0867257873204093,1.47,34.0,10224.0
151.665143967,-58.4607276,-34.527951,3.091640547910009,1.519,34.0,10224.0
152.173101902,-58.4607381,-34.5279512,3.093650416531835,1.542,34.0,10224.0
152.683722973,-58.460753499999996,-34.5279519,3.0882582227375845,1.526,34.0,10224.0
153.185288906,-58.4607636,-34.5279525,3.0883280793812613,1.518,34.0,10224.0
153.690114975,-58.460778,-34.5279536,3.091643647351537,1.484,34.0,10224.0
154.200474977,-58.460786899999995,-34.5279544,3.0952201644566397,1.471,34.0,10224.0
154.701159,-58.460798499999996,-34.5279557,3.093197421231542,1.474,34.0,10224.0
155.202094793,-58.460805,-34.5279563,3.0923555652287344,1.506,34.0,10224.0
155.721051931,-58.4608139,-34.5279562,3.099484876790319,1.452,34.0,10224.0
156.234672785,-58.4608183,-34.5279552,3.1014054576542716,1.483,34.0,10224.0
156.744513988,-58.4608224,-34.5279527,3.1032267371800284,1.506,34.0,10224.0
157.258107901,-58.4608231,-34.5279512,3.097018198170934,1.507,34.0,10224.0
157.763793945,-58.460822199999996,-34.5279495,3.0975530902531485,1.49,34.0,10224.0
158.270803928,-58.4608194,-34.5279494,3.091008381047521,1.476,34.0,10224.0
158.777188778,-58.4608181,-34.5279495,3.0910470048573355,1.465,34.0,10224.0
159.283140898,-58.4608175,-34.52795,3.0940299789097647,1.457,34.0,10224.0
159.788775921,-58.4608183,-34.5279508,3.087009028592382,1.423,34.0,10224.0
160.299921989,-58.4608207,-34.5279519,3.0972392121937613,1.461,34.0,10224.0
160.809429884,-58.4608231,-34.5279527,3.111330942311559,1.468,34.0,10224.0
161.312266827,-58.4608274,-34.5279544,3.0996899167683463,1.515,34.0,10224.0
161.820491791,-58.4608298,-34.5279556,3.092371896901403,1.488,34.0,10224.0
162.322012901,-58.460832399999994,-34.5279573,3.086190656819616,1.456,34.0,10224.0
162.824745893,-58.4608335,-34.5279581,3.0884962836888175,1.449,34.0,10224.0
163.336460829,-58.4608347,-34.5279585,3.090134576955114,1.5,34.0,10224.0
163.839702845,-58.4608351,-34.5279585,3.0923717776921134,1.487,34.0,10224.0
164.347627878,-58.460835499999995,-34.527957799999996,3.095654443898473,1.512,34.0,10224.0
164.850107908,-58.460835599999996,-34.5279569,3.09973938862351,1.547,34.0,10224.0
165.358642817,-58.4608365,-34.527955899999995,3.0918539325383048,1.495,34.0,10224.0
165.863218784,-58.4608372,-34.5279556,3.0887412587788443,1.45,34.0,10224.0
166.365781784,-58.4608383,-34.527955299999995,3.0870673219349722,1.453,34.0,10224.0
166.873749971,-58.4608389,-34.527955,3.095507458844457,1.462,34.0,10224.0
167.380855799,-58.46084,-34.527954799999996,3.091976718106542,1.544,34.0,10224.0
167.889610767,-58.4608407,-34.527954699999995,3.0682971040394644,1.53,34.0,10224.0
168.397635937,-58.460843999999994,-34.527954799999996,3.0230780402806143,1.499,34.0,10224.0
168.899034977,-58.4608462,-34.527954699999995,3.0201966325428824,1.51,34.0,10224.0
169.399326801,-58.4608597,-34.527954,2.671671704449926,1.551,34.0,10224.0
169.909421921,-58.460868,-34.527953,2.626208380856786,1.574,34.0,10224.0
170.414875984,-58.4608822,-34.527949299999996,2.62920339504746,1.677,34.0,10224.0
170.923997879,-58.4608912,-34.5279466,2.6162210265782218,1.67,34.0,10224.0
171.441041946,-58.460904799999994,-34.5279415,2.625048236050878,1.592,34.0,10224.0
171.953503847,-58.4609129,-34.5279379,2.6225493709233145,1.547,34.0,10224.0
172.454647779,-58.460921199999994,-34.5279325,2.619160727658544,1.501,34.0,10224.0
172.959516764,-58.460926099999995,-34.527928599999996,2.624435261884008,1.461,34.0,10224.0
173.46932292,-58.460932,-34.5279236,2.6252489844944815,1.454,34.0,10224.0
173.970431805,-58.4609332,-34.5279224,2.6248150626805167,1.467,34.0,10224.0
174.47825098,-58.460937799999996,-34.5279202,2.6324158469822745,1.397,34.0,10224.0
174.979080915,-58.4609391,-34.5279194,2.6631875793125968,1.381,34.0,10224.0
175.48435092,-58.4609428,-34.527918299999996,2.710497931638036,1.363,34.0,10224.0
175.993471861,-58.4609476,-34.527916499999996,2.920798377194677,1.402,34.0,10224.0
176.496569872,-58.4609582,-34.5279135,-2.431700456138474,1.471,34.0,10224.0
177.006550789,-58.460966899999995,-34.5279126,-2.0906090617140354,1.453,34.0,10224.0
177.511195898,-58.4609782,-34.527913999999996,-1.9593994498213354,1.441,34.0,10224.0
178.015814781,-58.4609842,-34.5279221,-1.9610333323439184,1.398,34.0,10224.0
178.517843962,-58.460984599999996,-34.5279301,-1.9783182024916235,1.431,34.0,10224.0
179.024300814,-58.460981,-34.5279441,-2.0014676928480686,1.555,34.0,10224.0
179.528779984,-58.4609769,-34.5279536,-2.0025660872419895,1.582,34.0,10224.0
180.035161972,-58.4609708,-34.5279661,-2.008008468147141,1.558,34.0,10224.0
180.54141593,-58.4609677,-34.5279737,-2.0148906588514865,1.547,34.0,10224.0
181.049866915,-58.4609652,-34.5279825,-2.009177434440476,1.532,34.0,10224.0
181.555835962,-58.460964399999995,-34.5279866,-2.0005822062452854,1.47,34.0,10224.0
182.057002783,-58.460964399999995,-34.5279904,-1.978253829475266,1.413,34.0,10224.0
182.562084913,-58.4609652,-34.5279922,-1.9931454539259497,1.398,34.0,10224.0
183.062763929,-58.4609671,-34.5279932,-1.990313041206223,1.379,33.0,10188.0
183.570002794,-58.4609691,-34.5279935,-1.9946002840956274,1.41,33.0,10188.0
184.070785999,-58.4609721,-34.5279933,-1.9923336386641088,1.489,32.0,10152.0
184.574020863,-58.460974199999995,-34.5279938,-2.005793082710129,1.529,32.0,10152.0
185.082511902,-58.4609783,-34.527997299999996,-1.7913722872694555,1.503,32.0,10152.0
185.58812499,-58.4609816,-34.5280019,-0.8436543186518807,1.519,32.0,10152.0
186.089713812,-58.460984399999994,-34.5280121,-0.5418855388972421,1.503,32.0,10152.0
186.59063983,-58.4609816,-34.5280199,-0.43464200099441,1.523,32.0,10152.0
187.091039896,-58.460968799999996,-34.5280292,-0.4213206013056893,1.436,31.0,10116.0
187.592550993,-58.4609567,-34.5280331,-0.42753903468581633,1.371,31.0,10116.0
188.104254961,-58.460944,-34.5280347,-0.42793194850417565,1.429,31.0,10116.0
188.61555481,-58.4609247,-34.5280343,-0.42679946025344323,1.579,31.0,10116.0
189.125680923,-58.4609056,-34.528031399999996,-0.42377535899611896,1.632,31.0,10116.0
189.638034821,-58.460893299999995,-34.528029599999996,-0.4312640865656991,1.593,31.0,10116.0
190.149779797,-58.4608767,-34.5280282,-0.44090478023024987,1.562,31.0,10116.0
190.651204824,-58.460867099999994,-34.5280281,-0.4455959041926522,1.502,31.0,10116.0
191.155571938,-58.4608533,-34.5280294,-0.4326879223200936,1.525,31.0,10116.0
191.657637835,-58.4608445,-34.528031399999996,-0.4266401966426034,1.531,31.0,10116.0
192.168547869,-58.4608323,-34.528036,-0.4250704487177987,1.525,31.0,10116.0
192.669005871,-58.4608242,-34.5280394,-0.43101994594069903,1.478,31.0,10116.0
193.175764799,-58.4608116,-34.5280444,-0.43032567103835534,1.455,31.0,10116.0
193.678579807,-58.4608029,-34.5280479,-0.4397002895686288,1.506,31.0,10116.0
194.192259789,-58.460789999999996,-34.528053,-0.4523832043025155,1.454,31.0,10116.0
194.701694965,-58.460781399999995,-34.5280561,-0.4443709095332284,1.46,31.0,10116.0
195.208277941,-58.4607683,-34.528060599999996,-0.4362522800776619,1.554,31.0,10116.0
195.711411953,-58.460759599999996,-34.5280639,-0.43177573283645104,1.52,31.0,10116.0
196.221966982,-58.460747,-34.5280695,-0.44471900065871667,1.468,31.0,10116.0
196.725259781,-58.4607393,-34.528073,-0.4412481029841561,1.455,31.0,10116.0
197.231522799,-58.4607296,-34.5280766,-0.4540592869135995,1.522,31.0,10116.0
197.737185955,-58.4607241,-34.5280784,-0.4291259487483163,1.544,31.0,10116.0
198.247791767,-58.460717499999994,-34.5280811,-0.41891543467971276,1.464,31.0,10116.0
198.768229961,-58.4607136,-34.5280829,-0.4174396236750741,1.456,31.0,10116.0
199.274682999,-58.4607093,-34.5280847,-0.41758315165969323,1.504,31.0,10116.0
199.779086828,-58.4607071,-34.528085499999996,-0.41440932353469323,1.518,31.0,10116.0
200.282618999,-58.460705,-34.5280862,-0.41352336009475177,1.569,31.0,10116.0
200.792488813,-58.4607033,-34.528086699999996,-0.413122340044703,1.591,31.0,10116.0
201.301790953,-58.4607013,-34.5280872,-0.40813080867263263,1.582,31.0,10116.0
