-34.52757455806116 -58.46080129611949
-34.52757455806116 -58.46080129611949
-34.52754371981889 -58.4609036624336
-34.52754371981889 -58.4609036624336
-34.52751288157661 -58.46100602874771
-34.52751288157661 -58.46100602874771
-34.52748204333434 -58.461108395061814
-34.52748204333434 -58.461108395061814
-34.527451205092056 -58.46121076137591
-34.527451205092056 -58.46121076137591
-34.52742036684978 -58.46131312769002
-34.52742036684978 -58.46131312769002
-34.527335639475474 -58.4612758693987
-34.527335639475474 -58.4612758693987
-34.52725091210116 -58.461238611107376
-34.52725091210116 -58.461238611107376
-34.527281750343434 -58.461136244793266
-34.527281750343434 -58.461136244793266
-34.52736647771775 -58.46117350308459
-34.52736647771775 -58.46117350308459
-34.52739731596003 -58.461071136770485
-34.52739731596003 -58.461071136770485
-34.52756677070865 -58.461145653353135
-34.52756677070865 -58.461145653353135
-34.52759760895093 -58.46104328703904
-34.52759760895093 -58.46104328703904
-34.527659285435476 -58.46083855441082
-34.527659285435476 -58.46083855441082
