-58.461987462	-34.526920994
-58.4610019542	-34.5267427463
-58.460232769	-34.5268549424
-58.4597520014	-34.5274292157
-58.460433011	-34.5283863855
-58.4616268268	-34.529772629
-58.4627485997	-34.5290399321
-58.4628367407	-34.5288022962
-58.4621877399	-34.5282940096
-58.4617791215	-34.5276867089
-58.4618993138	-34.5274292712
-58.461987462	-34.526920994
